%YAML 1.1
%TAG !u! tag:unity3d.com,2011:
--- !u!114 &11400000
MonoBehaviour:
  m_ObjectHideFlags: 0
  m_CorrespondingSourceObject: {fileID: 0}
  m_PrefabInstance: {fileID: 0}
  m_PrefabAsset: {fileID: 0}
  m_GameObject: {fileID: 0}
  m_Enabled: 1
  m_EditorHideFlags: 0
  m_Script: {fileID: 11500000, guid: 34a7c8ca992f915438a96c2077353778, type: 3}
  m_Name: EnemyBehaviour
  m_EditorClassIdentifier: 
  brickName: Assets/Behaviour/EnemyBehaviour.asset
  xml: "\uFEFF<?xml version=\"1.0\" encoding=\"utf-8\"?>\r\n<BehaviorBricks xmlns:ref=\"urn:padaone\"
    version=\"1.0\">\r\n  <BehaviorTree id=\"0\" />\r\n  <runtimeInfo>\r\n    <BehaviorTree
    id=\"0\" guid=\"b973045cef847da41b8114165b66b14d\" nextId=\"7\">\r\n      <root>\r\n       
    <RepeatDecorator id=\"6\" />\r\n      </root>\r\n      <inputParams>\r\n       
    <inputValues>\r\n          <entry name=\"player\" type=\"UnityEngine.GameObject\"
    isBlackboard=\"False\" />\r\n          <entry name=\"wanderArea\" type=\"UnityEngine.GameObject\"
    isBlackboard=\"False\" />\r\n        </inputValues>\r\n      </inputParams>\r\n     
    <outputParams />\r\n      <localParams />\r\n    </BehaviorTree>\r\n    <RepeatDecorator
    id=\"6\" loops=\"-1\" policy=\"ContinueWhenChildFails\">\r\n      <child>\r\n       
    <PrioritySelectorNode id=\"1\" />\r\n      </child>\r\n      <inputParams />\r\n     
    <outputParams />\r\n      <localParams />\r\n    </RepeatDecorator>\r\n    <PrioritySelectorNode
    id=\"1\">\r\n      <children>\r\n        <elem>\r\n          <GuardAndNode>\r\n           
    <guard>\r\n              <ConditionEvalNode id=\"3\" />\r\n            </guard>\r\n           
    <child>\r\n              <ActionNode id=\"2\" />\r\n            </child>\r\n         
    </GuardAndNode>\r\n        </elem>\r\n        <elem>\r\n          <GuardAndNode>\r\n           
    <guard>\r\n              <ConditionEvalNode id=\"5\" />\r\n            </guard>\r\n           
    <child>\r\n              <SubbehaviorNode id=\"4\" />\r\n            </child>\r\n         
    </GuardAndNode>\r\n        </elem>\r\n      </children>\r\n      <inputParams
    />\r\n      <outputParams />\r\n      <localParams />\r\n    </PrioritySelectorNode>\r\n   
    <ConditionEvalNode id=\"3\" policy=\"WAIT_UNTIL_FALSE_AND_FAIL\" name=\"Perception/IsTargetClose\">\r\n     
    <inputParams>\r\n        <inputValues>\r\n          <entry name=\"target\" type=\"UnityEngine.GameObject\"
    isBlackboard=\"True\" blackboard=\"player\" />\r\n          <entry name=\"closeDistance\"
    type=\"System.Single\" isBlackboard=\"False\" value=\"15\" />\r\n        </inputValues>\r\n     
    </inputParams>\r\n      <outputParams />\r\n      <localParams />\r\n    </ConditionEvalNode>\r\n   
    <ActionNode id=\"2\" action=\"Navigation/MoveToGameObject\">\r\n      <inputParams>\r\n       
    <inputValues>\r\n          <entry name=\"target\" type=\"UnityEngine.GameObject\"
    isBlackboard=\"True\" blackboard=\"player\" />\r\n        </inputValues>\r\n     
    </inputParams>\r\n      <outputParams />\r\n      <localParams />\r\n    </ActionNode>\r\n   
    <ConditionEvalNode id=\"5\" policy=\"WAIT_UNTIL_FALSE_AND_FAIL\" name=\"AlwaysTrue\">\r\n     
    <inputParams />\r\n      <outputParams />\r\n      <localParams />\r\n    </ConditionEvalNode>\r\n   
    <SubbehaviorNode id=\"4\">\r\n      <_guid>ad5ecd50d04e8874a96f2e32161eec6b</_guid>\r\n     
    <inputParams>\r\n        <inputValues>\r\n          <entry name=\"wanderArea\"
    type=\"UnityEngine.GameObject\" isBlackboard=\"True\" blackboard=\"wanderArea\"
    />\r\n        </inputValues>\r\n      </inputParams>\r\n      <outputParams />\r\n     
    <localParams />\r\n    </SubbehaviorNode>\r\n  </runtimeInfo>\r\n  <editorInfo>\r\n   
    <BehaviorTree id=\"0\" _name=\"EnemyBehaviour\" _description=\"\" _removeIfClosed=\"False\">\r\n     
    <_rootList>\r\n        <elem>\r\n          <PrioritySelectorNode id=\"1\" />\r\n       
    </elem>\r\n        <elem>\r\n          <ActionNode id=\"2\" />\r\n        </elem>\r\n       
    <elem>\r\n          <ConditionEvalNode id=\"3\" />\r\n        </elem>\r\n       
    <elem>\r\n          <SubbehaviorNode id=\"4\" />\r\n        </elem>\r\n       
    <elem>\r\n          <ConditionEvalNode id=\"5\" />\r\n        </elem>\r\n       
    <elem>\r\n          <RepeatDecorator id=\"6\" />\r\n        </elem>\r\n     
    </_rootList>\r\n      <_nodes>\r\n        <nodes>\r\n          <PrioritySelectorNode
    id=\"1\" />\r\n          <ActionNode id=\"2\" />\r\n          <ConditionEvalNode
    id=\"3\" />\r\n          <SubbehaviorNode id=\"4\" />\r\n          <ConditionEvalNode
    id=\"5\" />\r\n          <RepeatDecorator id=\"6\" />\r\n        </nodes>\r\n     
    </_nodes>\r\n    </BehaviorTree>\r\n    <RepeatDecorator id=\"6\">\r\n      <_data>\r\n       
    <data breakpoint=\"0\" selected=\"False\" position=\"666.4636 286.0834\" name=\"Repeat\"
    description=\"Repeats the execution of its child node\" cardinality=\"1\" hasParent=\"False\">\r\n         
    <BehaviorTree id=\"0\" />\r\n          <RepeatDecorator id=\"6\" />\r\n       
    </data>\r\n      </_data>\r\n    </RepeatDecorator>\r\n    <PrioritySelectorNode
    id=\"1\">\r\n      <_data>\r\n        <data breakpoint=\"0\" selected=\"False\"
    position=\"686.3026 389.2975\" name=\"Priority Selector\" description=\"\" cardinality=\"1\"
    hasParent=\"True\">\r\n          <BehaviorTree id=\"0\" />\r\n          <PrioritySelectorNode
    id=\"1\" />\r\n          <RepeatDecorator id=\"6\" />\r\n        </data>\r\n     
    </_data>\r\n    </PrioritySelectorNode>\r\n    <ConditionEvalNode id=\"3\">\r\n     
    <_data>\r\n        <data breakpoint=\"0\" selected=\"False\" position=\"697.4227
    619.0837\" name=\"Perception/IsTargetClose\" description=\"Eval\" cardinality=\"1\"
    hasParent=\"True\">\r\n          <BehaviorTree id=\"0\" />\r\n          <ConditionEvalNode
    id=\"3\" />\r\n          <PrioritySelectorNode id=\"1\" />\r\n        </data>\r\n     
    </_data>\r\n    </ConditionEvalNode>\r\n    <ActionNode id=\"2\">\r\n      <_data>\r\n       
    <data breakpoint=\"0\" selected=\"False\" position=\"443.9516 524.7975\" name=\"Navigation/MoveToGameObject\"
    description=\"Moves the game object towards a given target by using a NavMeshAgent\"
    cardinality=\"0\" hasParent=\"False\">\r\n          <BehaviorTree id=\"0\" />\r\n         
    <ActionNode id=\"2\" />\r\n        </data>\r\n      </_data>\r\n    </ActionNode>\r\n   
    <ConditionEvalNode id=\"5\">\r\n      <_data>\r\n        <data breakpoint=\"0\"
    selected=\"False\" position=\"1423.031 616.5444\" name=\"AlwaysTrue\" description=\"Eval\"
    cardinality=\"1\" hasParent=\"True\">\r\n          <BehaviorTree id=\"0\" />\r\n         
    <ConditionEvalNode id=\"5\" />\r\n          <PrioritySelectorNode id=\"1\" />\r\n       
    </data>\r\n      </_data>\r\n    </ConditionEvalNode>\r\n    <SubbehaviorNode
    id=\"4\">\r\n      <_data>\r\n        <data breakpoint=\"0\" selected=\"False\"
    position=\"907.5247 551.6469\" name=\"Wander\" description=\"\" cardinality=\"-1\"
    hasParent=\"False\">\r\n          <BehaviorTree id=\"0\" />\r\n          <SubbehaviorNode
    id=\"4\" />\r\n        </data>\r\n      </_data>\r\n    </SubbehaviorNode>\r\n 
    </editorInfo>\r\n</BehaviorBricks>"
  zoom: 0.6
  subslist:
  - {fileID: 11400000, guid: ad5ecd50d04e8874a96f2e32161eec6b, type: 2}
  _guid: b973045cef847da41b8114165b66b14d
